…
``` r
deaths <- av %>%
  select(Name.Alias, starts_with("Death")) %>%
  pivot_longer(
    cols = starts_with("Death"),
    names_to = "Time",
    values_to = "Death"
  ) %>%
  mutate(Time = parse_number(Time)) %>%
  mutate(Death = na_if(Death, ""))
deaths
```

    ## # A tibble: 865 × 3
    ##    Name.Alias                     Time Death
    ##    <chr>                         <dbl> <chr>
    ##  1 "Henry Jonathan \"Hank\" Pym"     1 YES  
    ##  2 "Henry Jonathan \"Hank\" Pym"     2 <NA> 
    ##  3 "Henry Jonathan \"Hank\" Pym"     3 <NA> 
    ##  4 "Henry Jonathan \"Hank\" Pym"     4 <NA> 
    ##  5 "Henry Jonathan \"Hank\" Pym"     5 <NA> 
    ##  6 "Janet van Dyne"                  1 YES  
    ##  7 "Janet van Dyne"                  2 <NA> 
    ##  8 "Janet van Dyne"                  3 <NA> 
    ##  9 "Janet van Dyne"                  4 <NA> 
    ## 10 "Janet van Dyne"                  5 <NA> 
    ## # ℹ 855 more rows

``` r
returns <- av %>%
  select(Name.Alias, starts_with("Return")) %>%
  pivot_longer(
    cols = starts_with("Return"),
    names_to = "Time",
    values_to = "Return"
  ) %>%
  mutate(Time = parse_number(Time)) %>%
  mutate(Return = na_if(Return, ""))
returns
```

    ## # A tibble: 865 × 3
    ##    Name.Alias                     Time Return
    ##    <chr>                         <dbl> <chr> 
    ##  1 "Henry Jonathan \"Hank\" Pym"     1 NO    
    ##  2 "Henry Jonathan \"Hank\" Pym"     2 <NA>  
    ##  3 "Henry Jonathan \"Hank\" Pym"     3 <NA>  
    ##  4 "Henry Jonathan \"Hank\" Pym"     4 <NA>  
    ##  5 "Henry Jonathan \"Hank\" Pym"     5 <NA>  
    ##  6 "Janet van Dyne"                  1 YES   
    ##  7 "Janet van Dyne"                  2 <NA>  
    ##  8 "Janet van Dyne"                  3 <NA>  
    ##  9 "Janet van Dyne"                  4 <NA>  
    ## 10 "Janet van Dyne"                  5 <NA>  
    ## # ℹ 855 more rows

``` r
death_summary <- deaths %>%
  group_by(Name.Alias) %>%
  summarise(Total_Deaths = sum(tolower(Death) == "yes", na.rm = TRUE))
death_summary
```

    ## # A tibble: 163 × 2
    ##    Name.Alias              Total_Deaths
    ##    <chr>                          <int>
    ##  1 ""                                 7
    ##  2 "\"Giulietta Nefaria\""            1
    ##  3 "Adam"                             1
    ##  4 "Adam Brashear"                    0
    ##  5 "Alani Ryan"                       0
    ##  6 "Alex Summers"                     0
    ##  7 "Alexis"                           0
    ##  8 "Alias: Jonas"                     1
    ##  9 "Amadeus Cho"                      0
    ## 10 "America Chavez"                   0
    ## # ℹ 153 more rows

``` r
return_summary<- returns %>%
  group_by(Name.Alias) %>%
  summarise(Total_Returns = sum(tolower(Return) == "yes", na.rm = TRUE))

return_summary
```

    ## # A tibble: 163 × 2
    ##    Name.Alias              Total_Returns
    ##    <chr>                           <int>
    ##  1 ""                                  2
    ##  2 "\"Giulietta Nefaria\""             0
    ##  3 "Adam"                              0
    ##  4 "Adam Brashear"                     0
    ##  5 "Alani Ryan"                        0
    ##  6 "Alex Summers"                      0
    ##  7 "Alexis"                            0
    ##  8 "Alias: Jonas"                      0
    ##  9 "Amadeus Cho"                       0
    ## 10 "America Chavez"                    0
    ## # ℹ 153 more rows
…
